===========================================================================
 BBS: SECRET C::The C Source*HST DS*(403)256-7
Date: 09-29-93 (18:33)             Number: 173
From: JEFF GALBRAITH               Refer#: 168
  To: PAUL SIDORSKY                 Recvd: NO  
Subj: infilt                         Conf: (7) General
---------------------------------------------------------------------------
Howdy Paul!

28 Sep 93, Paul Sidorsky writes to Jeff Galbraith:

 PS> How much did you slow it down?  About 12 seconds for the guy to cross the
 PS> screen (left to right) is about right.  It's not
 PS> supposed to be lightening
 PS> fast.  Well, Lode Runner wasn't very fast, so I am assuming Inf shouldn't
 PS> be either.

How do you slow it down?


Jeff.Galbraith@f21.n134.z1.fidonet.org

--- GoldED 2.41
 * Origin: SECRET C::The C Source*HST DS*(403)256-7019,Calgary,Ab (1:134/21)
