===========================================================================
 BBS: SECRET C::The C Source*HST DS*(403)256-7
Date: 09-27-93 (20:28)             Number: 182
From: JEFF GALBRAITH               Refer#: 175
  To: SOLEIL LAPIERRE               Recvd: NO  
Subj: Infilt                         Conf: (7) General
---------------------------------------------------------------------------
Howdy Soleil!

One other not on Infiltrator, please change your go.bat to
run.bat. It confilist with a lot of other software and/or
aliases. A lot of people use go as an alias (via 4DOS or
DOSKEY) for their favorite directory changer, like NCD.
Much easier to type GO.


Jeff.Galbraith@f21.n134.z1.fidonet.org

--- GoldED 2.41
 * Origin: SECRET C::The C Source*HST DS*(403)256-7019,Calgary,Ab (1:134/21)
