===========================================================================
 BBS: SECRET C::The C Source*HST DS*(403)256-7
Date: 10-12-93 (12:48)             Number: 15
From: PAUL SIDORSKY                Refer#: NONE
  To: SOLEIL LAPIERRE               Recvd: NO  
Subj: New Inf                        Conf: (7) General
---------------------------------------------------------------------------
Why is the new Infiltrator in different colors?  Is it because I missed a
file, or did you change the colors?  Me, I like the old ones better.

Where are these new features implemented?  Did you change a few levels, or
are you just going to add them to new ones?

Finally, 15 GUARDS MAX?!?!?  You must be some kind of sadistic fool!  :-)


--- Blue Wave/Max v2.12 [NR]
 * Origin: SECRET C::The C Source*HST DS*(403)256-7019,Calgary,Ab (1:134/21)
