Log clippings as of Jan 3, 1994
"Motherlode" renamed "Infiltrator" on Feb 3, 1993.

Worked on project: motherlode
On date: 01/01/1993
Start Time: 13:31:45 - Finish Time: 18:35:47 - Time spent:  5:04:02.

Worked on project: motherlode
On date: 01/01/1993
Start Time: 19:20:54 - Finish Time: 22:41:14 - Time spent:  3:20:20.

Worked on project: motherlode
On date: 01/02/1993
Start Time: 20:05:57 - Finish Time: 22:16:32 - Time spent:  2:10:35.

Worked on project: motherlode
On date: 01/03/1993
Start Time: 18:39:21 - Finish Time: 20:55:45 - Time spent:  2:16:24.

Worked on project: motherlode
On date: 01/04/1993
Start Time: 19:06:41 - Finish Time: 19:55:08 - Time spent:  0:48:27.

Worked on project: motherlode
On date: 01/04/1993
Start Time: 19:56:29 - Finish Time: 21:23:26 - Time spent:  1:26:57.

Worked on project: motherlode
On date: 01/04/1993
Start Time: 18:35:48 - Finish Time: 19:27:10 - Time spent:  0:51:22.

Worked on project: motherlode
On date: 01/04/1993
Start Time: 23:34:49 - Finish Time:  1:22:47 - Time spent:  1:47:58.

Worked on project: motherlode
On date: 01/06/1993
Start Time: 18:06:55 - Finish Time: 19:49:54 - Time spent:  1:42:59.

Worked on project: motherlode
On date: 01/06/1993
Start Time: 20:24:05 - Finish Time: 21:52:14 - Time spent:  1:28:09.

Worked on project: motherlode
On date: 01/07/1993
Start Time: 13:30:50 - Finish Time: 14:53:29 - Time spent:  1:22:39.

Worked on project: motherlode
On date: 01/07/1993
Start Time: 14:53:34 - Finish Time: 17:27:31 - Time spent:  2:33:57.

Worked on project: motherlode
On date: 01/07/1993
Start Time:  3:38:59 - Finish Time:  4:20:15 - Time spent:  0:41:16.

Worked on project: motherlode
On date: 01/11/1993
Start Time: 21:48:41 - Finish Time: 22:04:15 - Time spent:  0:15:34.

Worked on project: motherlode
On date: 01/13/1993
Start Time: 21:34:29 - Finish Time: 22:35:51 - Time spent:  1:01:22.

Worked on project: motherlode
On date: 01/14/1993
Start Time: 21:13:14 - Finish Time: 23:09:27 - Time spent:  1:56:13.

Worked on project: motherlode
On date: 01/15/1993
Start Time: 22:02:25 - Finish Time: 22:56:37 - Time spent:  0:54:12.

Worked on project: motherlode
On date: 01/16/1993
Start Time: 15:26:39 - Finish Time: 17:38:08 - Time spent:  2:11:29.

Worked on project: motherlode
On date: 01/16/1993
Start Time: 19:54:16 - Finish Time: 20:19:22 - Time spent:  0:25:06.

Worked on project: motherlode
On date: 01/16/1993
Start Time: 21:48:52 - Finish Time: 22:29:26 - Time spent:  0:40:34.

Worked on project: motherlode
On date: 01/17/1993
Start Time: 14:07:27 - Finish Time: 18:14:34 - Time spent:  4:07:07.

Worked on project: motherlode
On date: 01/17/1993
Start Time: 20:17:26 - Finish Time: 23:41:36 - Time spent:  3:24:10.

Worked on project: motherlode
On date: 00/00/0
Start Time:  0:00:00 - Didn't log off.

Worked on project: 
On date: 00/00/0
Start Time:  0:00:00 - Didn't log off.

Worked on project: motherlode
On date: 01/19/1993
Start Time: 20:01:30 - Finish Time: 21:14:14 - Time spent:  1:12:44.

Worked on project: motherlode
On date: 01/20/1993
Start Time: 20:23:15 - Finish Time: 22:30:03 - Time spent:  2:06:48.

Worked on project: motherlode
On date: 01/22/1993
Start Time: 15:59:31 - Finish Time: 18:29:15 - Time spent:  2:29:44.

Worked on project: motherlode
On date: 01/22/1993
Start Time: 19:27:07 - Finish Time: 20:08:24 - Time spent:  0:41:17.

Worked on project: motherlode
On date: 01/22/1993
Start Time: 20:38:25 - Finish Time: 22:30:27 - Time spent:  1:52:02.

Worked on project: motherlode
On date: 01/22/1993
Start Time: 23:03:15 - Finish Time: 23:52:08 - Time spent:  0:48:53.

Worked on project: motherlode
On date: 01/23/1993
Start Time:  0:25:11 - Finish Time:  0:56:41 - Time spent:  0:31:30.

Worked on project: motherlode
On date: 01/23/1993
Start Time:  1:21:25 - Finish Time:  2:51:02 - Time spent:  1:29:37.

Worked on project: motherlode
On date: 01/23/1993
Start Time: 21:14:11 - Finish Time: 22:14:47 - Time spent:  1:00:36.

Worked on project: motherlode
On date: 01/25/1993
Start Time: 21:06:33 - Finish Time: 22:36:43 - Time spent:  1:30:10.

Worked on project: motherlode
On date: 01/26/1993
Start Time: 13:01:22 - Finish Time: 14:58:26 - Time spent:  1:57:04.

Worked on project: motherlode
On date: 01/26/1993
Start Time: 15:40:53 - Finish Time: 17:55:45 - Time spent:  2:14:52.

Worked on project: motherlode
On date: 01/27/1993
Start Time: 17:43:32 - Finish Time: 19:09:53 - Time spent:  1:26:21.

Worked on project: motherlode
On date: 01/27/1993
Start Time: 21:24:56 - Didn't log off.

Worked on project: motherlode
On date: 01/29/1993
Start Time: 21:28:39 - Finish Time: 23:58:39 - Time spent:  2:30:00.

Worked on project: motherlode
On date: 01/30/1993
Start Time: 16:59:54 - Finish Time: 19:42:36 - Time spent:  2:42:42.

Worked on project: motherlode
On date: 01/31/1993
Start Time: 17:11:06 - Didn't log off.


Total time to this point: 65:05:12


Log accidentally erased, Feb 10 1993. Estimated time 30 hours.


Project Log printout as of Wed Feb 17 00:24:43 1993

Worked on project: infiltrator
On date: 02/10/1993
Start Time: 20:02:05 - Finish Time: 23:34:09 - Time spent:  3:32:04.

Worked on project: infiltrator
On date: 02/11/1993
Start Time: 15:05:59 - Finish Time: 15:28:24 - Time spent:  0:22:25.

Worked on project: infiltrator
On date: 02/11/1993
Start Time: 18:42:23 - Finish Time: 19:04:32 - Time spent:  0:22:09.

Worked on project: infiltrator
On date: 02/11/1993
Start Time: 21:16:26 - Finish Time: 23:24:39 - Time spent:  2:08:13.

Worked on project: infiltrator
On date: 02/12/1993
Start Time: 19:42:00 - Finish Time: 23:05:15 - Time spent:  3:23:15.

Worked on project: infiltrator
On date: 02/12/1993
Start Time: 23:27:03 - Finish Time:  0:55:02 - Time spent:  1:27:59.

Worked on project: infiltrator
On date: 02/13/1993
Start Time: 13:12:42 - Finish Time: 14:30:11 - Time spent:  1:17:29.

Worked on project: infiltrator
On date: 02/13/1993
Start Time: 20:25:11 - Finish Time: 23:28:54 - Time spent:  3:03:43.

Worked on project: infiltrator
On date: 02/14/1993
Start Time: 19:41:21 - Finish Time: 20:43:44 - Time spent:  1:02:23.

Worked on project: infiltrator
On date: 02/14/1993
Start Time: 21:06:26 - Finish Time: 23:14:30 - Time spent:  2:08:04.

Worked on project: infiltrator
On date: 02/15/1993
Start Time: 14:58:54 - Finish Time: 20:01:54 - Time spent:  5:03:00.

Worked on project: infiltrator
On date: 02/15/1993
Start Time: 22:50:43 - Finish Time:  0:33:13 - Time spent:  1:42:30.

Worked on project: infiltrator
On date: 02/16/1993
Start Time: 17:21:57 - Finish Time: 17:25:46 - Time spent:  0:03:49.

Worked on project: infiltrator
On date: 02/16/1993
Start Time: 17:44:09 - Finish Time: 19:38:28 - Time spent:  1:54:19.

Worked on project: infiltrator
On date: 02/16/1993
Start Time: 20:05:59 - Finish Time: 22:59:21 - Time spent:  2:53:22.


Total time to this point: 125:29:56


Project Log printout as of Sun Feb 21 20:11:36 1993

Worked on project: infiltrator
On date: 02/17/1993
Start Time: 14:31:10 - Finish Time: 16:44:54 - Time spent:  2:13:44.

Worked on project: infiltrator
On date: 02/17/1993
Start Time: 19:55:25 - Finish Time: 23:59:48 - Time spent:  4:04:23.

Worked on project: infiltrator
On date: 02/18/1993
Start Time: 15:40:35 - Finish Time: 17:04:12 - Time spent:  1:23:37.

Worked on project: infiltrator
On date: 02/18/1993
Start Time: 18:20:00 - Finish Time:  0:00:56 - Time spent:  5:40:56.

Worked on project: infiltrator
On date: 02/20/1993
Start Time: 16:33:17 - Finish Time: 18:47:06 - Time spent:  2:13:49.

Worked on project: infiltrator
On date: 02/20/1993
Start Time: 23:30:49 - Finish Time:  0:59:33 - Time spent:  1:28:44.

Worked on project: infiltrator
On date: 02/21/1993
Start Time: 13:38:20 - Finish Time: 15:47:02 - Time spent:  2:08:42.

Worked on project: infiltrator
On date: 02/21/1993
Start Time: 19:25:38 - Finish Time: 20:11:22 - Time spent:  0:45:44.

End of log.

Infiltrator 1.0 ready for release. 

Total time spent on Infiltrator 1.0: 523775 seconds, or 145:29:35.

At $18.00 per hour, wages work out to $2619. 
At $15.00 per copy (after expenses), 175 registrations are required.

-------------------------------------------------------

Project Log printout as of Mon Sep 13 14:22:50 1993

Worked on project: infiltrator
On date: 09/06/1993
Start Time: 12:22:34 - Finish Time: 12:41:34 - Time spent:  0:19:00.

Worked on project: infiltrator
On date: 09/06/1993
Start Time: 12:53:58 - Finish Time: 15:45:29 - Time spent:  2:51:31.

Worked on project: infiltrator
On date: 09/08/1993
Start Time: 14:45:41 - Finish Time: 17:54:29 - Time spent:  3:08:48.

Worked on project: infiltrator
On date: 09/09/1993
Start Time: 11:52:23 - Finish Time: 17:00:52 - Time spent:  5:08:29.

Worked on project: infiltrator
On date: 09/11/1993
Start Time: 10:55:53 - Finish Time: 11:50:03 - Time spent:  0:54:10.

Worked on project: infiltrator
On date: 09/12/1993
Start Time: 12:47:45 - Finish Time: 13:28:05 - Time spent:  0:40:20.

Worked on project: infiltrator
On date: 09/12/1993
Start Time: 14:02:04 - Finish Time: 14:50:29 - Time spent:  0:48:25.

Worked on project: infiltrator
On date: 09/13/1993
Start Time: 11:33:29 - Finish Time: 14:22:32 - Time spent:  2:49:03.

End of log.

Total time spent on project infiltrator: 16:39:46.


Toral time to Sept 13 1993:  145:29:35 + 16:39:46 = 162:09:21

-------------------------------------------------------------
Project Log printout as of Sat Oct 09 14:14:50 1993

Worked on project: infiltrator
On date: 09/23/1993
Start Time: 11:11:06 - Finish Time: 12:05:03 - Time spent:  0:53:57.

Worked on project: infiltrator
On date: 09/25/1993
Start Time: 20:23:19 - Finish Time: 20:32:45 - Time spent:  0:09:26.

Worked on project: infiltrator
On date: 09/25/1993
Start Time: 20:33:10 - Finish Time: 20:39:47 - Time spent:  0:06:37.

Worked on project: infiltrator
On date: 09/26/1993
Start Time: 11:23:19 - Finish Time: 17:58:32 - Time spent:  6:35:13.

Worked on project: infiltrator
On date: 09/27/1993
Start Time: 11:57:10 - Finish Time: 13:42:10 - Time spent:  1:45:00.

Worked on project: infiltrator
On date: 09/28/1993
Start Time: 11:58:47 - Finish Time: 16:35:45 - Time spent:  4:36:58.

Worked on project: infiltrator
On date: 09/30/1993
Start Time: 11:24:28 - Finish Time: 16:58:21 - Time spent:  5:33:53.

Worked on project: infiltrator
On date: 09/30/1993
Start Time: 19:15:51 - Finish Time: 20:42:20 - Time spent:  1:26:29.

Worked on project: infiltrator
On date: 10/02/1993
Start Time: 12:40:41 - Finish Time: 17:33:25 - Time spent:  4:52:44.

Worked on project: infiltrator
On date: 10/02/1993
Start Time: 18:49:57 - Finish Time: 19:31:57 - Time spent:  0:42:00.

Worked on project: infiltrator
On date: 10/03/1993
Start Time: 12:19:44 - Finish Time: 15:13:43 - Time spent:  2:53:59.

Worked on project: infiltrator
On date: 10/03/1993
Start Time: 15:31:42 - Finish Time: 15:53:57 - Time spent:  0:22:15.

Worked on project: infiltrator
On date: 10/04/1993
Start Time: 11:49:26 - Didn't log off.

Worked on project: infiltrator
On date: 10/05/1993
Start Time: 11:01:58 - Finish Time: 12:47:52 - Time spent:  1:45:54.

Worked on project: infiltrator
On date: 10/07/1993
Start Time: 16:13:45 - Finish Time: 17:37:12 - Time spent:  1:23:27.

Worked on project: infiltrator
On date: 10/07/1993
Start Time: 18:20:10 - Finish Time: 19:10:45 - Time spent:  0:50:35.

Worked on project: infiltrator
On date: 10/07/1993
Start Time: 19:16:18 - Finish Time: 19:49:36 - Time spent:  0:33:18.

Worked on project: infiltrator
On date: 10/09/1993
Start Time: 14:04:05 - Finish Time: 14:14:29 - Time spent:  0:10:24.


Total time as of October 9: 162:09:21 + 46:52:43 = 209:02:04

------------------------------------------------------------
Project Log printout as of Mon Jan 03 17:27:22 1994

Dates are in MM/DD/YYYY format. Times are in 24-hour HH:MM:SS format.

Worked on project: infiltrator
On date: 10/13/1993
Start Time: 18:29:37 - Finish Time: 20:37:14 - Time spent:  2:07:37.

Worked on project: infiltrator
On date: 10/20/1993
Start Time: 14:59:37 - Finish Time: 15:43:48 - Time spent:  0:44:11.

Worked on project: infiltrator
On date: 10/25/1993
Start Time: 11:39:56 - Finish Time: 15:02:33 - Time spent:  3:22:37.

Worked on project: infiltrator
On date: 11/08/1993
Start Time: 17:40:04 - Finish Time: 18:05:09 - Time spent:  0:25:05.

Worked on project: infiltrator
On date: 11/08/1993
Start Time: 19:53:24 - Finish Time: 19:58:27 - Time spent:  0:05:03.

Worked on project: infiltrator
On date: 11/13/1993
Start Time: 11:37:33 - Finish Time: 12:17:25 - Time spent:  0:39:52.

Worked on project: infiltrator
On date: 11/13/1993
Start Time: 12:35:25 - Finish Time: 15:20:12 - Time spent:  2:44:47.

Worked on project: infiltrator
On date: 11/14/1993
Start Time: 12:00:54 - Finish Time: 12:31:29 - Time spent:  0:30:35.

Worked on project: infiltrator
On date: 11/19/1993
Start Time: 15:26:39 - Finish Time: 16:10:34 - Time spent:  0:43:55.

Worked on project: infiltrator
On date: 11/20/1993
Start Time: 19:17:33 - Finish Time: 22:15:46 - Time spent:  2:58:13.

Worked on project: infiltrator
On date: 11/21/1993
Start Time: 17:58:42 - Finish Time: 19:56:45 - Time spent:  1:58:03.

Worked on project: infiltrator
On date: 11/23/1993
Start Time: 12:25:49 - Finish Time: 14:47:50 - Time spent:  2:22:01.

Worked on project: infiltrator
On date: 11/23/1993
Start Time: 18:25:02 - Finish Time: 20:09:58 - Time spent:  1:44:56.

Worked on project: infiltrator
On date: 11/29/1993
Start Time: 12:44:11 - Finish Time: 12:44:42 - Time spent:  0:00:31.

Worked on project: infiltrator
On date: 11/29/1993
Start Time: 16:17:34 - Finish Time: 16:31:55 - Time spent:  0:14:21.

Worked on project: infiltrator
On date: 11/29/1993
Start Time: 17:44:48 - Finish Time: 18:44:09 - Time spent:  0:59:21.

Worked on project: infiltrator
On date: 12/03/1993
Start Time: 11:40:15 - Finish Time: 13:04:54 - Time spent:  1:24:39.

Worked on project: infiltrator
On date: 12/04/1993
Start Time: 14:18:01 - Didn't log off.

Worked on project: infiltrator
On date: 12/07/1993
Start Time: 12:02:54 - Finish Time: 12:23:58 - Time spent:  0:21:04.

Worked on project: infiltrator
On date: 12/12/1993
Start Time: 11:35:16 - Finish Time: 16:37:45 - Time spent:  5:02:29.

Worked on project: infiltrator
On date: 12/19/1993
Start Time: 13:14:48 - Finish Time: 15:56:40 - Time spent:  2:41:52.

Worked on project: infiltrator
On date: 12/19/1993
Start Time: 17:41:06 - Finish Time: 18:29:16 - Time spent:  0:48:10.

Worked on project: infiltrator
On date: 12/20/1993
Start Time: 14:17:58 - Finish Time: 16:28:11 - Time spent:  2:10:13.

Worked on project: infiltrator
On date: 12/26/1993
Start Time: 17:42:28 - Finish Time: 18:06:28 - Time spent:  0:24:00.

Worked on project: infiltrator
On date: 12/27/1993
Start Time: 15:51:20 - Finish Time: 15:59:48 - Time spent:  0:08:28.

Worked on project: infiltrator
On date: 12/27/1993
Start Time: 20:37:36 - Finish Time: 22:14:38 - Time spent:  1:37:02.

Worked on project: infiltrator
On date: 12/30/1993
Start Time: 15:20:38 - Finish Time: 16:31:29 - Time spent:  1:10:51.

Worked on project: infiltrator
On date: 01/01/1994
Start Time: 16:12:03 - Finish Time: 17:15:26 - Time spent:  1:03:23.

Worked on project: infiltrator
On date: 01/02/1994
Start Time: 12:31:22 - Finish Time: 16:23:53 - Time spent:  3:52:31.

Worked on project: infiltrator
On date: 01/02/1994
Start Time: 16:45:38 - Finish Time: 18:10:38 - Time spent:  1:25:00.

Worked on project: infiltrator
On date: 01/03/1994
Start Time: 11:46:38 - Finish Time: 13:00:34 - Time spent:  1:13:56.

Worked on project: infiltrator
On date: 01/03/1994
Start Time: 13:10:58 - Finish Time: 16:28:00 - Time spent:  3:17:02.

Worked on project: infiltrator
On date: 01/03/1994
Start Time: 17:26:37 - Finish Time: 17:27:13 - Time spent:  0:00:36.

End of log.

Total time as January 3 1994: 209:02:04 + 48:22:25 = 257:24:29

